// Jest Snapshot v1, https://goo.gl/fbAQLP

exports[`CenterDiv is fine 1`] = `
<div
  className="sc-hKgJUU jPXgUE"
/>
`;

exports[`LeftDiv is fine 1`] = `
<div
  className="sc-dlfnuX knOiFj"
/>
`;

exports[`RightDiv is fine 1`] = `
<div
  className="sc-eCstlR cGYOXR"
/>
`;

exports[`Row is fine 1`] = `
<div
  className="sc-gsTEea kCDcdL"
/>
`;

exports[`Section is fine 1`] = `
<section
  className="sc-bdfBQB eDWLLZ container"
/>
`;
